…
    ## # A tibble: 1,190 x 4
    ##    idhex Epidemic introduction_ph introduction_wb
    ##    <chr>    <dbl>           <int>           <int>
    ##  1 591        100               0              31
    ##  2 623        100               0              10
    ##  3 625        100               0             114
    ##  4 589         73               0             138
    ##  5 627         39               0              43
    ##  6 663         21               0              22
    ##  7 515         18               0              22
    ##  8 587         18               0              18
    ##  9 660         13               0              16
    ## 10 701         12               0              13
    ## # … with 1,180 more rows
…
